<svg width="16" height="16" viewBox="0 0 16 16" fill="none" xmlns="http://www.w3.org/2000/svg">
<path d="M13.332 4.66666H15.332" stroke="#656E7A"/>
<path d="M0.666016 4.66666H8.26601" stroke="#656E7A"/>
<path d="M13.5327 2H15.3327V15.3333H0.666016V2H10.9327" stroke="#656E7A"/>
<path d="M4 2V4.66667" stroke="#656E7A" stroke-linecap="square"/>
<path d="M8.39974 7.19998L7.06641 5.86665L11.9997 0.933316C12.3997 0.533316 12.9331 0.533316 13.3331 0.933316C13.7331 1.33332 13.7331 1.86665 13.3331 2.26665L8.39974 7.19998Z" stroke="#656E7A" stroke-linecap="square"/>
<path d="M4.53183 7.86663C5.06517 7.3333 5.86517 7.3333 6.3985 7.86663C6.93183 8.39996 6.93183 9.19996 6.3985 9.7333C5.86517 10.2666 4.06517 10.2 4.06517 10.2C4.06517 10.2 3.9985 8.3333 4.53183 7.86663V7.86663Z" stroke="#656E7A" stroke-linecap="square"/>
</svg>
