<svg width="16" height="16" viewBox="0 0 16 16" fill="none" xmlns="http://www.w3.org/2000/svg">
<path d="M8 2V4" stroke="#2C2F34"/>
<path d="M13.1868 4.14667L11.7734 5.56" stroke="#2C2F34"/>
<path d="M15.334 9.33333H13.334" stroke="#2C2F34"/>
<path d="M4.66699 6L7.06033 8.39333" stroke="#2C2F34"/>
<path d="M0.666992 9.33333H2.66699" stroke="#2C2F34"/>
<path d="M8.94314 8.39049C9.46384 8.91119 9.46384 9.75541 8.94314 10.2761C8.42244 10.7968 7.57822 10.7968 7.05752 10.2761C6.53682 9.75542 6.53682 8.91119 7.05752 8.39049C7.57822 7.86979 8.42244 7.86979 8.94314 8.39049" stroke="#2C2F34"/>
<path d="M13.657 14C14.7043 12.732 15.3337 11.106 15.3337 9.33333C15.3337 5.28333 12.0503 2 8.00033 2C3.95033 2 0.666992 5.28333 0.666992 9.33333C0.666992 11.106 1.29633 12.732 2.34366 14H13.657Z" stroke="#2C2F34" stroke-linecap="square"/>
</svg>
