<svg width="17" height="16" viewBox="0 0 17 16" fill="none" xmlns="http://www.w3.org/2000/svg">
<g clip-path="url(#clip0)">
<path d="M15.6671 8.03438C15.5848 7.95313 15.4772 7.90938 15.3633 7.90938C15.2494 7.90938 15.1418 7.95313 15.0596 8.03438L14.6483 8.44063C14.7843 6.50938 14.0313 4.6125 12.5821 3.28437C11.3924 2.19375 9.83571 1.59375 8.20306 1.59375C7.35825 1.59375 6.53243 1.75312 5.75407 2.06562C4.94724 2.39062 4.22583 2.86563 3.612 3.48125C3.19435 3.9 2.83364 4.37187 2.54888 4.88125C2.48876 4.9875 2.4761 5.1125 2.51091 5.22813C2.54571 5.34375 2.63114 5.44063 2.73872 5.49375C2.802 5.525 2.87161 5.54063 2.94122 5.54063C3.10575 5.54063 3.25446 5.45312 3.33356 5.3125C3.58353 4.86562 3.89677 4.45312 4.2638 4.09062C4.79536 3.56562 5.41235 3.15937 6.10212 2.88125C6.76974 2.6125 7.47532 2.47813 8.19673 2.47813C8.9213 2.47813 9.62689 2.6125 10.2945 2.88125C10.9843 3.15937 11.6044 3.56563 12.136 4.09375C12.7783 4.73125 13.2561 5.51875 13.5218 6.375C13.7433 7.09062 13.8129 7.85313 13.7307 8.6L13.1327 8.02188C13.0536 7.94688 12.9492 7.90312 12.8384 7.90312C12.7277 7.90312 12.6201 7.94687 12.541 8.025C12.3765 8.1875 12.3765 8.45 12.541 8.6125L13.8952 9.95312C13.9553 10.0125 14.0344 10.0437 14.1167 10.0437C14.199 10.0437 14.2781 10.0125 14.3382 9.95312L15.6702 8.63437C15.8348 8.46875 15.8348 8.2 15.6671 8.03438V8.03438ZM13.6611 10.4969C13.5978 10.4656 13.5282 10.45 13.4586 10.45C13.294 10.45 13.1453 10.5375 13.0662 10.6781C12.8163 11.125 12.503 11.5375 12.136 11.9C11.6044 12.425 10.9874 12.8344 10.2945 13.1094C9.62689 13.3781 8.9213 13.5125 8.19673 13.5125C7.47216 13.5125 6.76657 13.3781 6.10212 13.1094C5.41235 12.8313 4.7922 12.425 4.26063 11.9C3.07095 10.7187 2.48876 9.05937 2.66911 7.40312L3.2513 7.98125C3.32724 8.05625 3.42849 8.09688 3.53606 8.09688C3.64364 8.09688 3.74489 8.05625 3.82083 7.98125L3.86196 7.94063C4.017 7.7875 4.017 7.53437 3.86196 7.38125L2.50458 6.0375C2.44446 5.97812 2.36536 5.94688 2.2831 5.94688C2.20083 5.94688 2.12173 5.97812 2.06161 6.0375L0.732705 7.35938C0.56501 7.525 0.56501 7.79375 0.732705 7.95937C0.814971 8.04062 0.922549 8.08438 1.03646 8.08438C1.15036 8.08438 1.25794 8.04062 1.34021 7.95937L1.75153 7.55C1.69458 8.35625 1.79267 9.175 2.0363 9.94063C2.34954 10.9219 2.88427 11.7937 3.62782 12.5281C4.24481 13.1406 4.96306 13.6125 5.76673 13.9375C6.54192 14.25 7.36142 14.4062 8.19989 14.4062C9.03837 14.4062 9.85786 14.2469 10.6331 13.9375C11.4367 13.6156 12.155 13.1406 12.772 12.5281C13.1991 12.1062 13.563 11.6281 13.8541 11.1094C13.9142 11.0031 13.9268 10.8781 13.892 10.7625C13.8541 10.6469 13.7718 10.55 13.6611 10.4969V10.4969Z" fill="black" fill-opacity="0.38"/>
</g>
<defs>
<clipPath id="clip0">
<rect width="16.2" height="16" fill="white" transform="translate(0.100098)"/>
</clipPath>
</defs>
</svg>
