<svg width="17" height="16" viewBox="0 0 17 16" fill="none" xmlns="http://www.w3.org/2000/svg">
<path d="M14.6567 12.0766C13.4287 11.7632 11.4627 11.2632 11.0567 11.1645C10.4653 11.0212 10.0533 10.6705 9.89 10.0758C9.69334 9.35836 9.75467 8.76298 10.3447 8.31495C11.144 7.7069 11.662 6.74883 11.662 5.66674V4.47665C11.662 2.73584 10.3893 1.18106 8.656 1.01571C6.668 0.825695 4.99534 2.38448 4.99534 4.3333V5.66674C4.99534 6.74883 5.51334 7.7069 6.31334 8.31428C6.90334 8.76232 6.96467 9.3577 6.768 10.0751C6.60467 10.6705 6.19267 11.0205 5.60134 11.1638C5.19467 11.2625 3.22934 11.7626 2.00134 12.0759C1.40934 12.2266 0.99867 12.756 1 13.3667C1.00134 13.788 1.002 14.3341 1.002 14.9995H8.32867H15.6567C15.6567 14.3341 15.6573 13.788 15.6587 13.3667C15.6593 12.7566 15.248 12.2273 14.6567 12.0766V12.0766Z" stroke="#A1AAB6" stroke-linecap="square"/>
</svg>
