<svg width="8" height="8" viewBox="0 0 8 8" fill="none" xmlns="http://www.w3.org/2000/svg">
<path d="M0.5 7.75H7.5" stroke="#656E7A" stroke-linecap="round" stroke-linejoin="round"/>
<path d="M5.25 0.25L6.75 1.75L2.5 6L0.5 6.5L1 4.5L5.25 0.25Z" stroke="#656E7A" stroke-linecap="round" stroke-linejoin="round"/>
<path d="M4.25 1.25L5.75 2.75" stroke="#656E7A" stroke-linecap="round" stroke-linejoin="round"/>
</svg>
