<svg width="12" height="12" viewBox="0 0 12 12" fill="none" xmlns="http://www.w3.org/2000/svg">
<path d="M11.0719 0.5H7.61875C7.38438 0.5 7.19063 0.690625 7.19063 0.928125V0.934375C7.19063 1.16875 7.38125 1.3625 7.61875 1.3625H10.0094L1.3625 10.0094V7.61875C1.3625 7.38438 1.17188 7.19063 0.934375 7.19063H0.928125C0.69375 7.19063 0.5 7.38125 0.5 7.61875V11.0719C0.5 11.3062 0.690625 11.5 0.928125 11.5H4.38125C4.61562 11.5 4.80937 11.3094 4.80937 11.0719V11.0656C4.80937 10.8313 4.61875 10.6375 4.38125 10.6375H1.99063L10.6375 1.99063V4.38125C10.6375 4.61562 10.8281 4.80937 11.0656 4.80937H11.0719C11.3062 4.80937 11.5 4.61875 11.5 4.38125V0.928125C11.5 0.690625 11.3094 0.5 11.0719 0.5V0.5Z" fill="#4F94F5"/>
</svg>
