<svg width="80" height="80" viewBox="0 0 80 80" fill="none" xmlns="http://www.w3.org/2000/svg">
<path d="M67.2021 54.3594C66.1709 53.4062 64.6553 53.1719 63.3584 52.9531C61.5615 52.6562 60.874 52.3281 59.8271 51.3906C57.5928 49.4062 57.5928 46.5313 59.8271 44.5469L64.5615 40.3438C71.8115 33.9375 71.8115 23.4375 64.5615 17.0312C59.2178 12.3281 52.0459 10 44.5928 10C35.8896 10 26.7959 13.1719 19.7803 19.3906C6.7334 30.9219 6.7334 49.8125 19.7803 61.3438C26.2646 67.0781 35.0146 69.9375 43.6709 70H43.9365C52.5928 70 61.124 67.2031 67.1865 61.8125C69.4365 59.8281 69.0615 56.0937 67.2021 54.3594V54.3594ZM18.749 33.75C18.749 30.9844 20.9834 28.75 23.749 28.75C26.5146 28.75 28.749 30.9844 28.749 33.75C28.749 36.5156 26.5146 38.75 23.749 38.75C20.9834 38.75 18.749 36.5156 18.749 33.75ZM24.999 53.4375C22.2334 53.4375 19.999 51.2031 19.999 48.4375C19.999 45.6719 22.2334 43.4375 24.999 43.4375C27.7646 43.4375 29.999 45.6719 29.999 48.4375C29.999 51.2031 27.7646 53.4375 24.999 53.4375ZM34.999 28.2812C32.2334 28.2812 29.999 26.0469 29.999 23.2812C29.999 20.5156 32.2334 18.2812 34.999 18.2812C37.7646 18.2812 39.999 20.5156 39.999 23.2812C39.999 26.0469 37.7646 28.2812 34.999 28.2812ZM46.249 62.5C42.1084 62.5 38.749 59.1406 38.749 55C38.749 50.8594 42.1084 47.5 46.249 47.5C50.3896 47.5 53.749 50.8594 53.749 55C53.749 59.1406 50.3896 62.5 46.249 62.5ZM49.999 30C47.2334 30 44.999 27.7656 44.999 25C44.999 22.2344 47.2334 20 49.999 20C52.7646 20 54.999 22.2344 54.999 25C54.999 27.7656 52.7646 30 49.999 30Z" fill="#A1AAB6"/>
</svg>
