<svg width="18" height="18" viewBox="0 0 18 18" fill="none" xmlns="http://www.w3.org/2000/svg">
<path d="M12.3751 4.04296H15.5392C15.6552 4.04296 15.7501 3.94804 15.7501 3.83203C15.7501 3.54374 15.62 3.26953 15.3985 3.0832L12.688 0.826166C12.5157 0.682025 12.1888 0.56601 11.9638 0.56601C11.8196 0.56601 11.7036 0.682025 11.7036 0.826166V3.37499C11.7071 3.74413 12.006 4.04296 12.3751 4.04296Z" fill="#4F94F5"/>
<path d="M10.793 3.375V0.5625H6.1875C5.56875 0.5625 5.0625 1.06875 5.0625 1.6875V13.5C5.0625 14.1187 5.56875 14.625 6.1875 14.625H14.625C15.2437 14.625 15.75 14.1187 15.75 13.5V4.95703H12.375C11.5031 4.95703 10.793 4.24688 10.793 3.375Z" fill="#4F94F5"/>
<path d="M4.07812 14.4844V2.8125H3.375C2.75625 2.8125 2.25 3.31875 2.25 3.9375V16.3125C2.25 16.9312 2.75625 17.4375 3.375 17.4375H12.375C12.9937 17.4375 13.5 16.9312 13.5 16.3125V15.6094H5.20312C4.58437 15.6094 4.07812 15.1031 4.07812 14.4844Z" fill="#4F94F5"/>
</svg>
