<svg width="16" height="16" viewBox="0 0 16 16" fill="none" xmlns="http://www.w3.org/2000/svg">
<path d="M4 7.75V14C4 14.275 4.225 14.5 4.5 14.5H11.5C11.775 14.5 12 14.275 12 14V7.75C12 7.475 11.775 7.25 11.5 7.25H4.5C4.225 7.25 4 7.475 4 7.75ZM12 1.5H4C3.725 1.5 3.5 1.725 3.5 2V2.625C3.5 2.69375 3.55625 2.75 3.625 2.75H12.375C12.4438 2.75 12.5 2.69375 12.5 2.625V2C12.5 1.725 12.275 1.5 12 1.5Z" fill="#A1AAB6"/>
<path d="M13.5156 3.5H2.51562C1.96562 3.5 1.5 3.93125 1.5 4.47813V9.92813C1.5 10.475 1.96562 10.9375 2.51562 10.9375H3C3.1375 10.9375 3.25 10.825 3.25 10.6875V7.375C3.25 6.89062 3.64062 6.5 4.125 6.5H11.875C12.3594 6.5 12.75 6.89062 12.75 7.375V10.6875C12.75 10.825 12.8625 10.9375 13 10.9375H13.5156C14.0656 10.9375 14.5 10.475 14.5 9.92813V4.47813C14.5 3.93125 14.0656 3.5 13.5156 3.5V3.5Z" fill="#A1AAB6"/>
</svg>
