<svg width="28" height="17" viewBox="0 0 28 17" fill="none" xmlns="http://www.w3.org/2000/svg">
<path d="M27.2935 12.9779C27.2502 12.9539 27.2062 12.9416 27.1611 12.9416C27.1149 12.9416 27.0709 12.9539 27.0282 12.9779C26.9854 13.0019 26.9501 13.0353 26.9264 13.0799C26.9016 13.1233 26.8906 13.169 26.8906 13.2159C26.8906 13.2628 26.9027 13.3091 26.9264 13.3519C26.9513 13.3953 26.9848 13.4305 27.027 13.4545C27.0698 13.4785 27.1149 13.4908 27.1623 13.4908C27.2085 13.4908 27.2536 13.4785 27.2958 13.4545C27.338 13.4305 27.3722 13.3953 27.3959 13.3519C27.4201 13.3091 27.4317 13.2634 27.4317 13.2159C27.4317 13.1684 27.4196 13.1233 27.3959 13.0799C27.371 13.0342 27.3369 13.0019 27.2935 12.9779ZM27.2294 13.3695L27.2039 13.3226C27.1837 13.2863 27.1669 13.2622 27.1542 13.2528C27.1461 13.247 27.1334 13.2423 27.1172 13.2423H27.09V13.3683H27.0426V13.0723H27.1432C27.1779 13.0723 27.2028 13.0752 27.2166 13.0811C27.2322 13.0869 27.2455 13.0951 27.2536 13.1098C27.2629 13.1233 27.2669 13.1379 27.2669 13.1532C27.2669 13.1749 27.2588 13.193 27.2444 13.21C27.2294 13.2253 27.2085 13.2353 27.1837 13.237C27.1941 13.2405 27.2022 13.2464 27.2085 13.2528C27.2207 13.2646 27.2346 13.2839 27.2519 13.3109L27.2877 13.3689H27.2294V13.3695ZM27.2016 13.1895C27.1912 13.1995 27.1733 13.2018 27.1461 13.2018H27.0883V13.1139H27.1426C27.1652 13.1139 27.1796 13.1157 27.1889 13.1192C27.1981 13.1227 27.2033 13.1291 27.2091 13.1332C27.2137 13.1415 27.2161 13.1479 27.2161 13.1573C27.2161 13.1714 27.2114 13.1807 27.2016 13.1895ZM26.9351 10.2045C26.8992 10.2232 26.8709 10.2525 26.8507 10.2895C26.8304 10.3264 26.82 10.3657 26.82 10.4038C26.82 10.4431 26.8304 10.4817 26.8495 10.5175C26.8709 10.5538 26.8981 10.5814 26.9339 10.6031C26.9698 10.623 27.0068 10.6347 27.0455 10.6347C27.0842 10.6347 27.1224 10.623 27.1571 10.6031C27.1929 10.5826 27.2207 10.5544 27.2415 10.5175C27.2617 10.4812 27.271 10.4431 27.271 10.4038C27.271 10.3657 27.2606 10.3264 27.2403 10.2895C27.2201 10.2531 27.1918 10.225 27.1559 10.2045C27.1201 10.1839 27.0837 10.174 27.0455 10.174C27.0085 10.174 26.9709 10.1845 26.9351 10.2045ZM27.1392 10.2965C27.149 10.3094 27.1525 10.324 27.1525 10.3399C27.1525 10.3616 27.1444 10.3797 27.1293 10.3962C27.1143 10.4132 27.0935 10.4202 27.0692 10.4231C27.0808 10.4278 27.0883 10.4331 27.0941 10.4384C27.1062 10.4507 27.1201 10.4683 27.1369 10.4964L27.1727 10.555H27.1149L27.0889 10.5093C27.0686 10.4724 27.0524 10.4489 27.0403 10.4401C27.0305 10.4325 27.0189 10.429 27.0021 10.429H26.9756V10.5544H26.927V10.259H27.0282C27.0623 10.259 27.0877 10.2619 27.1022 10.2684C27.1166 10.2736 27.1293 10.2836 27.1392 10.2965ZM27.0282 10.2988C27.0513 10.2988 27.0657 10.3018 27.0756 10.3047C27.0842 10.3088 27.0906 10.3135 27.0952 10.3194C27.1004 10.3276 27.1027 10.3334 27.1027 10.3434C27.1027 10.3563 27.0975 10.3674 27.0889 10.3762C27.0779 10.385 27.06 10.3885 27.0328 10.3885H26.9756V10.2994H27.0282V10.2988ZM20.8364 9.08418C20.9884 9.08476 21.0046 9.1 21.0306 9.10528C21.0474 9.25711 20.9364 9.97114 20.3993 9.97114C20.1218 9.97114 20.0501 9.75775 20.0501 9.62995C20.0501 9.38198 20.1825 9.08418 20.8364 9.08418ZM6.37273 9.08418C6.52536 9.08476 6.54154 9.1 6.56698 9.10528C6.58432 9.25711 6.47275 9.97114 5.93566 9.97114C5.65874 9.97114 5.58647 9.75775 5.58647 9.62995C5.58647 9.38198 5.71886 9.08418 6.37273 9.08418ZM19.6188 2.70952e-07C17.4561 0.000586498 15.4846 0.831856 13.9983 2.19718C12.5113 0.833615 10.541 0.00175895 8.38 0.00175895C8.36207 0.00175895 8.34358 0.00175895 8.32623 0.00175895C3.72547 0.0322428 0 3.82748 0 8.49971C0 13.1901 3.75438 16.9971 8.38 16.9971C10.5405 16.9971 12.5107 16.1664 13.9977 14.8016C13.6872 14.5173 13.4063 14.2025 13.1409 13.8731H14.8712C14.6105 14.1972 14.3261 14.5009 14.0202 14.7835H14.0185H14.0191C14.0121 14.7911 14.0046 14.7958 13.9977 14.8022C15.4852 16.1681 17.4578 17.0006 19.6223 17C24.2508 16.9982 28.0012 13.1925 28 8.49971C28 8.49795 28 8.49678 28 8.4956C28 3.80286 24.2474 -0.00117218 19.6188 2.70952e-07ZM13.2363 3.07476H14.829C15.0638 3.36319 15.2817 3.66685 15.4794 3.98459H12.6379C12.8212 3.68033 13.0224 3.36846 13.2363 3.07476ZM12.143 4.87741H15.9628C16.0986 5.1717 16.2189 5.47595 16.3241 5.78782H11.6904C11.7366 5.69989 11.8985 5.34581 12.143 4.87741ZM3.4208 10.6641L3.92897 7.41519L2.78254 10.6641H2.16799L2.08821 7.41519L1.54534 10.6641H0.684506L1.39792 6.35529H2.69987L2.74554 8.99917L3.62488 6.35529H5.03725L4.33366 10.6641H3.4208ZM6.46465 10.6594L6.49414 10.3129C6.48026 10.3147 6.20854 10.7285 5.57896 10.7285C5.24942 10.7285 4.71754 10.5462 4.71754 9.75365C4.71754 8.74592 5.52808 8.41177 6.29988 8.41177C6.42129 8.41177 6.68319 8.43405 6.68319 8.43405C6.68319 8.43405 6.71267 8.3725 6.71267 8.20601C6.71267 7.93224 6.46985 7.89472 6.13743 7.89472C5.55178 7.89472 5.16502 8.05359 5.16502 8.05359L5.29452 7.27391C5.29452 7.27391 5.76396 7.07459 6.37504 7.07459C6.69128 7.07459 7.60068 7.10859 7.60068 8.16556L7.25033 10.657H6.46465V10.6594ZM9.78543 9.56019C9.78543 10.7625 8.63669 10.711 8.43608 10.711C7.6874 10.711 7.45614 10.606 7.43475 10.6002L7.55385 9.80875C7.55501 9.80172 7.92963 9.94652 8.34647 9.94652C8.58697 9.94652 8.89916 9.92248 8.89916 9.63113C8.89916 9.19497 7.78221 9.29932 7.78221 8.26346C7.78221 7.34953 8.45168 7.08221 9.11191 7.08221C9.62182 7.08221 9.93517 7.15314 9.93517 7.15314L9.82243 7.95158C9.82243 7.95158 9.33854 7.91113 9.21308 7.91113C8.89569 7.91113 8.72283 7.98148 8.72283 8.20659C8.72225 8.65858 9.78543 8.43639 9.78543 9.56019ZM11.1649 9.875C11.2441 9.875 11.3337 9.84744 11.3949 9.84744L11.2834 10.616C11.1938 10.6412 10.94 10.7326 10.6145 10.735C10.1988 10.7385 9.90337 10.5028 9.90337 9.96821C9.90337 9.60944 10.4104 6.65309 10.43 6.63375H11.3221L11.2313 7.16252H11.6765L11.5626 8.01431H11.0903L10.8394 9.58364C10.8203 9.70792 10.8544 9.875 11.1649 9.875ZM13.127 7.06228C14.1064 7.06228 14.3995 7.7892 14.3995 8.38539C14.3995 8.62399 14.2815 9.21021 14.2815 9.21021H12.4685C12.4685 9.21021 12.3009 9.93421 13.2588 9.93421C13.708 9.93421 14.2064 9.71144 14.2064 9.71144L14.0491 10.5837C14.0491 10.5837 13.7612 10.7326 13.1068 10.7326C12.3974 10.7326 11.5655 10.4284 11.5655 9.15042C11.5661 8.04304 12.2298 7.06286 13.127 7.06228ZM15.4904 12.9972H12.5171C12.3361 12.7041 12.1673 12.4034 12.0222 12.0874H15.9784C15.8333 12.4016 15.6702 12.7053 15.4904 12.9972ZM15.291 10.6705H14.3752L14.9319 7.1637H15.7627L15.6829 7.67195C15.6829 7.67195 15.9789 7.11914 16.3784 7.11914C16.4946 7.11914 16.5507 7.13087 16.5507 7.13087C16.4322 7.37591 16.3276 7.60043 16.2189 8.18021C15.5991 7.95686 15.5517 9.17211 15.291 10.6705ZM18.78 10.616C18.78 10.616 18.3001 10.7403 17.9995 10.7403C16.9346 10.7403 16.394 9.99517 16.394 8.86668C16.394 7.16487 17.3959 6.25856 18.4256 6.25856C18.891 6.25856 19.4304 6.48015 19.4304 6.48015L19.2847 7.43864C19.2847 7.43864 18.9199 7.18011 18.4661 7.18011C17.859 7.18011 17.3144 7.76751 17.3144 8.83503C17.3144 9.36088 17.5682 9.85096 18.2019 9.85096C18.5031 9.85096 18.9395 9.62878 18.9395 9.62878L18.78 10.616ZM20.9277 10.6594L20.9578 10.3129C20.9433 10.3147 20.6716 10.7285 20.0426 10.7285C19.7131 10.7285 19.1812 10.5462 19.1812 9.75365C19.1812 8.74592 19.9917 8.41177 20.763 8.41177C20.8844 8.41177 21.1468 8.43405 21.1468 8.43405C21.1468 8.43405 21.1769 8.37308 21.1769 8.20659C21.1769 7.93283 20.9341 7.89531 20.6011 7.89531C20.0154 7.89531 19.6293 8.05417 19.6293 8.05417L19.7588 7.27449C19.7588 7.27449 20.2282 7.07518 20.8399 7.07518C21.1555 7.07518 22.0655 7.10918 22.0649 8.16614L21.7146 10.6576C21.714 10.6594 20.9277 10.6594 20.9277 10.6594ZM22.7818 10.6705H21.866L22.4228 7.1637H23.2541L23.1743 7.67195C23.1743 7.67195 23.4709 7.11914 23.8704 7.11914C23.9866 7.11914 24.0421 7.13087 24.0421 7.13087C23.9242 7.37591 23.8184 7.60043 23.7103 8.18021C23.0899 7.95686 23.0425 9.17211 22.7818 10.6705ZM27.2808 10.2666C27.3057 10.3106 27.3167 10.3563 27.3167 10.4038C27.3167 10.4513 27.3051 10.4958 27.2808 10.5398C27.2571 10.5832 27.2236 10.6166 27.1808 10.6424C27.1386 10.6664 27.0935 10.6787 27.0461 10.6787C26.9998 10.6787 26.9553 10.6664 26.9125 10.6424C26.8698 10.6166 26.8362 10.5832 26.8125 10.5398C26.7882 10.4958 26.7767 10.4513 26.7767 10.4038C26.7767 10.3557 26.7888 10.31 26.8125 10.2666C26.8362 10.2232 26.8715 10.188 26.9137 10.1646C26.9576 10.1406 27.001 10.1282 27.0461 10.1282C27.0923 10.1282 27.1363 10.1406 27.1791 10.1646C27.223 10.1886 27.2565 10.222 27.2808 10.2666ZM25.9789 7.57112L26.172 6.36056L27.0663 6.35881L26.3841 10.6605H25.5164L25.5551 10.3375C25.5551 10.3375 25.2591 10.7162 24.7237 10.7162C23.982 10.7162 23.6184 9.9899 23.6184 9.24773C23.6184 8.0999 24.2994 7.09921 25.1169 7.09921C25.643 7.10038 25.9789 7.57112 25.9789 7.57112ZM13.541 8.49267H12.5506C12.5506 8.43346 12.6443 7.87244 13.1305 7.87244C13.634 7.87244 13.541 8.44695 13.541 8.49267ZM25.2712 7.97093C25.5921 7.97093 25.7569 8.19428 25.7569 8.72071C25.7569 9.19732 25.5239 9.83689 25.0406 9.83689C24.7191 9.83689 24.5688 9.56254 24.5688 9.13459C24.5682 8.43288 24.8787 7.97093 25.2712 7.97093Z" fill="#656E7A"/>
</svg>
