<svg width="48" height="17" viewBox="0 0 48 17" fill="none" xmlns="http://www.w3.org/2000/svg">
<path d="M12.6218 7.47849C12.6545 7.30607 12.6278 7.19607 12.4286 7.16733C11.9351 7.09995 11.4446 6.98202 10.9501 6.95428C9.98192 6.89977 9.04843 7.07022 8.23387 7.62615C6.93571 8.51206 6.40059 9.78544 6.46302 11.3224C6.49176 12.0537 6.77815 12.6751 7.47578 12.9961C8.18134 13.3192 8.87799 13.2132 9.48644 12.7415C9.77976 12.5145 10.0107 12.2103 10.303 11.9051C10.2832 12.2103 10.2723 12.5007 10.2455 12.789C10.2277 12.9694 10.2891 13.0388 10.4744 13.0318C10.8341 13.0199 11.1968 13.0199 11.5565 13.0318C11.7518 13.0388 11.7964 12.9674 11.8092 12.7771C11.8489 12.1568 11.8786 11.5325 11.9797 10.9201C12.169 9.77058 12.4028 8.62602 12.6218 7.47849ZM9.94327 11.1163C9.83922 11.2778 9.70147 11.4265 9.55382 11.5503C9.31104 11.7594 9.02465 11.8486 8.70953 11.7228C8.39638 11.5969 8.28341 11.3125 8.26459 11.0122C8.20017 10.0431 8.53611 9.22555 9.28032 8.59927C9.67571 8.2663 10.1464 8.15829 10.7093 8.31486C10.5091 9.27906 10.4952 10.27 9.94327 11.1163ZM23.9683 7.43985C23.3569 6.98599 22.6612 6.89284 21.916 6.97509C19.4267 7.25156 18.41 9.88355 18.9392 11.5692C19.2622 12.5958 20.1392 13.1646 21.6792 13.1626C22.7395 13.1319 23.7879 12.5314 24.4459 11.2996C24.7967 10.6426 24.9226 9.92814 24.879 9.18591C24.8324 8.47341 24.55 7.8719 23.9683 7.43985ZM22.4194 11.4076C22.2272 11.6524 21.9745 11.8199 21.6554 11.8486C21.0836 11.9021 20.6476 11.5048 20.601 10.8983C20.5941 10.8091 20.6 10.7169 20.6 10.6297C20.6189 9.96183 20.7814 9.33654 21.1847 8.7925C21.365 8.54972 21.59 8.36045 21.8903 8.29306C22.5076 8.15036 23.013 8.51008 23.0685 9.17799C23.1379 9.99255 22.9367 10.7526 22.4194 11.4076ZM19.0313 7.53201C17.6499 8.91538 16.3587 10.378 15.232 11.9745C14.5294 12.9674 13.8734 13.997 13.2461 15.0405C12.932 15.5607 12.7298 16.1494 12.4732 16.7063C12.4335 16.7905 12.3434 16.9332 12.3136 16.9253C12.2027 16.8906 12.0441 16.8242 12.0144 16.739C11.945 16.521 11.8756 16.2732 11.9173 16.0582C12.1402 14.8879 12.6238 13.8117 13.1659 12.7662C14.2183 10.7338 15.5352 8.8807 17.0732 7.1931C17.9492 6.23286 18.8579 5.30136 19.7934 4.40157C21.2005 3.04792 22.7663 1.90337 24.5153 1.01745C25.32 0.609176 26.1603 0.30297 27.0521 0.136489C27.1998 0.108742 27.3484 0.0730678 27.4941 0.0403662C27.4941 0.0403662 29.3284 -0.311424 30.1281 1.06204C30.1281 1.06204 30.3471 1.396 30.3045 1.50698C30.2539 1.63581 30.0429 1.75968 29.8883 1.78148C28.4226 1.99949 27.0006 2.38101 25.6361 2.94387C24.8423 3.26891 24.0753 3.66232 23.3192 4.06762C21.6722 4.94957 20.3364 6.22394 19.0313 7.53201ZM36.279 7.0831C35.176 6.7541 34.1583 6.985 33.2912 7.72326C32.2388 8.61909 31.8434 9.80526 31.9921 11.1569C32.0981 12.1122 32.6213 12.797 33.5756 13.0427C34.5993 13.3073 35.6061 13.1686 36.5772 12.7712C36.6426 12.7454 36.7219 12.6305 36.7209 12.5621C36.7011 12.2073 36.6595 11.8526 36.6258 11.5008C36.5832 11.5008 36.5653 11.4968 36.5525 11.5018C36.49 11.5226 36.4286 11.5474 36.3662 11.5692C35.8092 11.7832 35.2305 11.8783 34.634 11.804C34.0166 11.7287 33.6083 11.3006 33.649 10.6971C34.0325 10.6971 34.41 10.716 34.7836 10.6932C35.3821 10.6585 35.9698 10.5564 36.5138 10.2869C37.2085 9.93706 37.5355 9.36528 37.484 8.61413C37.4285 7.85208 37.0162 7.3021 36.279 7.0831ZM35.5397 9.23447C35.1889 9.41978 34.2733 9.52978 33.8224 9.43564C33.9155 8.66566 34.7301 8.05721 35.4238 8.22568C35.6596 8.28315 35.8261 8.409 35.8647 8.65773C35.9034 8.90052 35.7815 9.10862 35.5397 9.23447ZM48 6.9622C47.892 7.51318 47.7949 8.02253 47.6869 8.53188C47.6769 8.5735 47.6016 8.62701 47.5511 8.63395C46.4056 8.78458 45.922 9.19087 45.6356 10.3642C45.4364 11.1807 45.3066 12.0151 45.1381 12.8376C45.1242 12.904 45.0648 13.017 45.0242 13.0179C44.4861 13.0298 43.95 13.0259 43.3782 13.0259C43.4545 12.5958 43.5229 12.2044 43.5992 11.8139C43.9004 10.3067 44.2126 8.80142 44.3364 7.26643C44.3404 7.204 44.4276 7.09598 44.4791 7.094C44.9171 7.08013 45.3621 7.08607 45.8397 7.08607C45.807 7.4993 45.7783 7.88677 45.7436 8.27324C46.2787 7.48345 46.8951 6.84725 48 6.9622ZM42.0503 7.07716C40.7858 6.72834 39.6789 7.06626 38.7891 8.01262C37.9586 8.89358 37.6534 9.97174 37.7981 11.1619C37.9101 12.0944 38.4016 12.7732 39.3361 13.0288C40.3756 13.3123 41.3953 13.1735 42.3813 12.7682C42.4487 12.7415 42.526 12.6265 42.524 12.5572C42.5051 12.2044 42.4625 11.8486 42.4239 11.473C42.303 11.5196 42.2108 11.5543 42.1197 11.585C41.5736 11.7852 41.0128 11.8714 40.4321 11.802C39.8107 11.7267 39.4005 11.2887 39.4579 10.7169C39.6304 10.7169 39.7929 10.7209 39.9554 10.7169C40.7432 10.6991 41.5271 10.6525 42.2554 10.3136C42.9808 9.97472 43.3316 9.39699 43.285 8.63197C43.2365 7.84812 42.8242 7.2912 42.0503 7.07716ZM41.3626 9.21267C41.1495 9.3078 40.9176 9.37717 40.6847 9.40789C40.3399 9.45446 39.9901 9.45843 39.6205 9.48221C39.6978 8.66863 40.551 8.03938 41.2427 8.22865C41.4656 8.29009 41.6321 8.40702 41.6648 8.64881C41.6995 8.90845 41.5935 9.11456 41.3626 9.21267ZM31.2716 8.19099C31.3509 8.91142 31.2033 9.60905 31.0685 10.3057C30.909 11.15 30.7504 11.9903 30.58 12.8316C30.5631 12.904 30.4769 13.0179 30.4194 13.0199C29.92 13.0338 29.4195 13.0239 28.9201 13.0199C28.8983 13.0199 28.8755 13.0021 28.8289 12.9803C28.9201 12.4977 29.0152 12.0101 29.1014 11.5216C29.2332 10.7744 29.3631 10.0253 29.483 9.2751C29.5038 9.14727 29.4949 9.0125 29.479 8.88367C29.4285 8.43873 29.1034 8.23063 28.6724 8.36837C28.2522 8.50215 28.0025 8.8252 27.7973 9.18591C27.4931 9.71409 27.3891 10.3017 27.284 10.8933C27.1721 11.5335 27.0561 12.1786 26.9283 12.8178C26.9144 12.8931 26.8252 13.011 26.7677 13.013C26.2524 13.0288 25.7401 13.0219 25.1723 13.0219C25.5399 11.0231 25.8987 9.06502 26.2633 7.09004C26.7559 7.09004 27.2295 7.09004 27.7389 7.09004C27.7151 7.40318 27.6903 7.70443 27.6665 8.01658C27.837 7.85704 27.9846 7.71038 28.1412 7.57462C28.715 7.07418 29.375 6.85221 30.137 6.97707C30.7663 7.08409 31.2003 7.54687 31.2716 8.19099ZM13.0182 1.81616C12.9915 1.66355 12.9776 1.50797 12.9647 1.35438C12.9498 1.17898 13.0509 1.09177 13.2045 1.14727C13.3532 1.20177 13.5087 1.286 13.6158 1.40095C14.5393 2.38002 15.12 3.52854 15.2786 4.87624C15.3093 5.13587 15.3232 5.39748 15.345 5.6581C15.3281 6.46871 15.1844 7.25355 14.907 8.01361C14.8782 8.09487 14.8188 8.16721 14.7643 8.23757C14.6355 8.40702 14.4967 8.42189 14.4006 8.23658C14.2738 7.99379 14.1667 7.73218 14.1053 7.4666C13.918 6.64609 13.7456 5.82161 13.588 4.99515C13.3868 3.93681 13.2055 2.87649 13.0182 1.81616ZM6.68004 6.60546C6.56807 5.82161 5.90908 5.15668 4.95974 4.92281C3.87266 4.65426 2.78261 4.76525 1.69355 4.92975C1.54986 4.95155 1.50923 5.04768 1.48346 5.18641C1.06726 7.38733 0.643131 9.58626 0.223956 11.7862C0.147653 12.1836 0.0792766 12.5849 0 13.0229C0.556918 13.0229 1.07816 13.0269 1.59841 13.014C1.64003 13.012 1.70147 12.902 1.71337 12.8336C1.88183 11.9854 2.04831 11.1331 2.2029 10.2829C2.23263 10.1184 2.28515 10.0718 2.45956 10.0887C3.19881 10.1551 3.92617 10.1045 4.63966 9.8667C5.99727 9.41978 6.90697 8.16919 6.68004 6.60546ZM4.84479 7.78866C4.57624 8.36243 4.0877 8.63494 3.48619 8.69935C3.17602 8.73305 2.85891 8.70629 2.50316 8.70629C2.66468 7.84812 2.80639 7.08707 2.95603 6.32799C2.96792 6.27151 3.03828 6.19322 3.08981 6.18529C3.51294 6.12881 3.93806 6.0971 4.3503 6.24475C4.931 6.44889 5.151 7.1386 4.84479 7.78866Z" fill="#656E7A"/>
</svg>
