<svg width="54" height="48" viewBox="0 0 54 48" fill="#656E7A" xmlns="http://www.w3.org/2000/svg">
<path d="M39.9227 1.61731L52.8453 24L39.9226 46.3827L14.0773 46.3827L1.1547 24L14.0774 1.61731L39.9227 1.61731Z" stroke="#656E7A" stroke-width="2"/>
</svg>
