<?xml version="1.0" encoding="utf-8"?>
<!-- Generator: Adobe Illustrator 22.1.0, SVG Export Plug-In . SVG Version: 6.00 Build 0)  -->
<svg version="1.1" id="Layer_1" xmlns="http://www.w3.org/2000/svg" xmlns:xlink="http://www.w3.org/1999/xlink" x="0px" y="0px"
	 viewBox="0 0 71 72" style="enable-background:new 0 0 71 72;" xml:space="preserve">
<style type="text/css">
	.st0{fill:#656E7A;stroke:#656E7A;stroke-width:2;}
</style>
<path class="st0" d="M1.4,49.7l0.2-28.3L21.8,1.7L50,1.9l19.8,20.2l-0.2,28.3L49.4,70.1l-28.3-0.2L1.4,49.7z"/>
</svg>
